%YAML 1.1
%TAG !u! tag:unity3d.com,2011:
--- !u!114 &11400000
MonoBehaviour:
  m_ObjectHideFlags: 0
  m_CorrespondingSourceObject: {fileID: 0}
  m_PrefabInstance: {fileID: 0}
  m_PrefabAsset: {fileID: 0}
  m_GameObject: {fileID: 0}
  m_Enabled: 1
  m_EditorHideFlags: 0
  m_Script: {fileID: 11500000, guid: aea21cd36b804664d97107064a14e642, type: 3}
  m_Name: GameDatabase
  m_EditorClassIdentifier: 
  levelSettingsList:
  - task: {fileID: 3878815634859604494, guid: c382801927d82e0478cf43280bd555e5, type: 3}
    answer: 32
    id: 1
  - task: {fileID: 8129183787235271013, guid: 04273d7de21bae048975d3006b2a6e28, type: 3}
    answer: 38
    id: 2
  - task: {fileID: 1695332739436900735, guid: 47d863dd3c6a37642a169006d0eff6fd, type: 3}
    answer: 25
    id: 3
  - task: {fileID: 3490788415654577873, guid: ec184c1ea8969ee4aa9a711f414987dc, type: 3}
    answer: 4
    id: 4
  - task: {fileID: 1233601802894131993, guid: ee4ee9ce8c9999640aecde08c26ac1cf, type: 3}
    answer: 0
    id: 5
  - task: {fileID: 7943687697727243828, guid: 4dd96a04905c87542ba53752bb37939a, type: 3}
    answer: 82
    id: 6
  - task: {fileID: 1031276131234483216, guid: 36693e6538f442f42b4a7d959bbca3a6, type: 3}
    answer: 6
    id: 7
  - task: {fileID: 6465856731089176727, guid: 97d7cdd1893310f45b573f613052099f, type: 3}
    answer: 97
    id: 8
  - task: {fileID: 7210486782468377520, guid: 0fefa2540f61a2f4389f5fc01d71ea78, type: 3}
    answer: 80
    id: 9
  - task: {fileID: 3075516933818467683, guid: c113906a252f56848b8ae065c1bbec7f, type: 3}
    answer: 18
    id: 10
  - task: {fileID: 4312677651812774312, guid: 51019c238da97bb4cb6c93433f6ca3b5, type: 3}
    answer: 32
    id: 11
  - task: {fileID: 1865217870599396890, guid: a59373c5eeaec594885268952e704dd9, type: 3}
    answer: 14
    id: 12
  - task: {fileID: 108468664824483130, guid: a14999a8517ce314b8c8846114450e40, type: 3}
    answer: 29
    id: 13
  - task: {fileID: 7407364515439856552, guid: 3200e921548a9ed4daaf57581299e85b, type: 3}
    answer: 10
    id: 14
  - task: {fileID: 8266583531285118728, guid: 107de5aca4143b1488ea440c85a8ff0d, type: 3}
    answer: 2
    id: 15
